id_course,tutor_name,gp_name,module,coursetype,room,room_type,color_bg,color_txt,day,start_time,duration
419,PS,2,PSE,TD,B106,M,#dac925,#000000,tu,480,90
418,PS,2,PSE,TD,B104,M,#dac925,#000000,tu,855,90
417,IO,3,PSE,TD,B105,M,#dac925,#000000,f,480,90
416,IO,1,PSE,TD,B106,M,#dac925,#000000,f,855,90
415,IO,3,PSE,TD,B105,M,#dac925,#000000,f,570,90
414,IO,1,PSE,TD,B106,M,#dac925,#000000,f,945,90
413,IO,1,PSE,CM,Amphi3,A,#dac925,#000000,th,570,90
423,AP,2,AA,TD,B219,M+,#56ebd3,#000000,m,570,90
422,PSO,1,AA,TD,B007,M+,#56ebd3,#000000,w,570,90
421,PRG,3,AA,TD,B004,M+,#56ebd3,#000000,tu,480,90
420,PSO,CE,AA,CM,Amphi1,A,#56ebd3,#000000,w,660,90
438,LN,3A,BDA,TP,B102,M,#8f0f12,#FFFFFF,m,1035,90
437,LN,3A,BDA,TP,B105,M,#8f0f12,#FFFFFF,m,945,90
436,YF,2B,BDA,TP,B104,M,#8f0f12,#FFFFFF,m,855,90
435,YF,2B,BDA,TP,B104,M,#8f0f12,#FFFFFF,m,660,90
434,LN,3B,BDA,TP,B104,M,#8f0f12,#FFFFFF,f,1035,90
433,LN,2A,BDA,TP,B105,M,#8f0f12,#FFFFFF,m,660,90
432,LN,1B,BDA,TP,B105,M,#8f0f12,#FFFFFF,tu,1035,90
431,LN,3B,BDA,TP,B104,M,#8f0f12,#FFFFFF,f,855,90
430,LN,2A,BDA,TP,B105,M,#8f0f12,#FFFFFF,m,855,90
429,LN,1B,BDA,TP,B103,M,#8f0f12,#FFFFFF,tu,945,90
428,OT,1A,BDA,TP,B101,M,#8f0f12,#FFFFFF,tu,945,90
427,OT,1A,BDA,TP,B101,M,#8f0f12,#FFFFFF,tu,1035,90
426,YF,2,BDA,TD,B007,B,#8f0f12,#FFFFFF,m,480,90
425,LN,3,BDA,TD,B009,B,#8f0f12,#FFFFFF,m,570,90
424,OT,1,BDA,TD,B007,B,#8f0f12,#FFFFFF,tu,660,90
441,TA,3,PRST,TD,B010,B,#c218f1,#FFFFFF,f,660,90
440,TA,2,PRST,TD,B004,B,#c218f1,#FFFFFF,f,570,90
439,RB,1,PRST,TD,B007,B,#c218f1,#FFFFFF,f,570,90
450,PSE,1,MM,TP,B101,M,#399643,#FFFFFF,m,855,90
449,PSE,1,MM,TP,B101,M,#399643,#FFFFFF,m,480,90
448,RB,3,MM,TP,B105,M,#399643,#FFFFFF,th,480,90
447,RB,2,MM,TP,B102,M,#399643,#FFFFFF,tu,1035,90
446,RB,3,MM,TP,B105,M,#399643,#FFFFFF,th,570,90
445,RB,2,MM,TP,B102,M,#399643,#FFFFFF,f,480,90
444,PSE,1,MM,TD,B004,B,#399643,#FFFFFF,m,1035,90
443,RB,3,MM,TD,B008,B,#399643,#FFFFFF,th,660,90
442,RB,2,MM,TD,B007,B,#399643,#FFFFFF,f,660,90
451,FMO,CE,DTIC,CM,Amphi1,A,#09f54c,#000000,w,480,90
458,EP,3,GSI,TP,B101,M,#872b83,#FFFFFF,w,570,90
457,EP,2,GSI,TP,B103,M,#872b83,#FFFFFF,tu,570,90
456,EP,1,GSI,TP,B101,M,#872b83,#FFFFFF,w,945,90
455,EP,3,GSI,TP,B102,M,#872b83,#FFFFFF,tu,855,90
454,EP,2,GSI,TP,B106,M,#872b83,#FFFFFF,f,1035,90
453,EP,1,GSI,TP,B102,M,#872b83,#FFFFFF,f,660,90
461,FMA,1,CP,TD,B008,E,#90ea66,#000000,th,480,90
460,MN,3,CP,TD,B115,E,#90ea66,#000000,w,855,90
459,MN,2,CP,TD,B115,E,#90ea66,#000000,m,1035,90
470,IC,3,CPAN,TP,Labo,L,#fd3fbe,#000000,m,480,90
469,IC,2,CPAN,TP,Labo,L,#fd3fbe,#000000,w,570,90
468,IC,1,CPAN,TP,Labo,L,#fd3fbe,#000000,w,1035,90
467,IC,3,CPAN,TP,Labo,L,#fd3fbe,#000000,m,855,90
466,IC,2,CPAN,TP,Labo,L,#fd3fbe,#000000,w,855,90
465,IC,1,CPAN,TP,Labo,L,#fd3fbe,#000000,m,945,90
464,VG,3,CPAN,TD,B008,B,#fd3fbe,#000000,w,945,90
463,VG,2,CPAN,TD,B008,B,#fd3fbe,#000000,w,1035,90
462,VG,1,CPAN,TD,B008,B,#fd3fbe,#000000,w,855,90
483,OR,3,MPA,TD,B007,M+,#f89ade,#000000,tu,1035,90
482,OR,2,MPA,TD,B219,M+,#f89ade,#000000,tu,660,90
481,OR,3,MPA,TD,B219,M+,#f89ade,#000000,tu,570,90
480,OR,2,MPA,TD,B004,M+,#f89ade,#000000,tu,945,90
479,JMB,1,MPA,TD,B219,M+,#f89ade,#000000,tu,480,90
478,JMB,1,MPA,TD,B004,M+,#f89ade,#000000,tu,855,90
477,JMB,3,MPA,TD,B007,M+,#f89ade,#000000,tu,945,90
476,JMB,3,MPA,TD,B004,M+,#f89ade,#000000,tu,660,90
475,JMB,2,MPA,TD,B004,M+,#f89ade,#000000,f,945,90
474,JMB,2,MPA,TD,B007,M+,#f89ade,#000000,f,855,90
473,JMB,1,MPA,TD,B007,M+,#f89ade,#000000,tu,570,90
472,JMB,1,MPA,TD,B007,M+,#f89ade,#000000,f,1035,90
489,FMA,1,PPP3,TP,B115,E,#0b5313,#FFFFFF,m,660,90
488,FMA,1,PPP3,TP,B010,E,#0b5313,#FFFFFF,th,660,90
487,MN,3,PPP3,TP,B115,E,#0b5313,#FFFFFF,w,1035,90
486,MN,2,PPP3,TP,B115,E,#0b5313,#FFFFFF,w,945,90
485,MN,3,PPP3,TP,B008,E,#0b5313,#FFFFFF,m,660,90
484,MN,2,PPP3,TP,B008,E,#0b5313,#FFFFFF,m,945,90