<?xml version="1.0" encoding="UTF-8" standalone="no"?>
<!-- Created with Inkscape (http://www.inkscape.org/) -->

<svg
   width="104.18747mm"
   height="79.365799mm"
   viewBox="0 0 104.18746 79.365799"
   version="1.1"
   id="svg96809"
   inkscape:version="1.1.2 (0a00cf5339, 2022-02-04)"
   sodipodi:docname="slide-frame.svg"
   xmlns:inkscape="http://www.inkscape.org/namespaces/inkscape"
   xmlns:sodipodi="http://sodipodi.sourceforge.net/DTD/sodipodi-0.dtd"
   xmlns="http://www.w3.org/2000/svg"
   xmlns:svg="http://www.w3.org/2000/svg">
  <sodipodi:namedview
     id="namedview96811"
     pagecolor="#505050"
     bordercolor="#eeeeee"
     borderopacity="1"
     inkscape:pageshadow="0"
     inkscape:pageopacity="0"
     inkscape:pagecheckerboard="0"
     inkscape:document-units="mm"
     showgrid="false"
     inkscape:zoom="0.98279044"
     inkscape:cx="270.14915"
     inkscape:cy="210.62476"
     inkscape:window-width="1366"
     inkscape:window-height="703"
     inkscape:window-x="0"
     inkscape:window-y="0"
     inkscape:window-maximized="1"
     inkscape:current-layer="layer1"
     fit-margin-top="0"
     fit-margin-left="0"
     fit-margin-right="0"
     fit-margin-bottom="0" />
  <defs
     id="defs96806" />
  <g
     inkscape:label="Calque 1"
     inkscape:groupmode="layer"
     id="layer1"
     transform="translate(-65.086258,-103.88417)">
    <g
       id="g96649"
       transform="translate(118.50292,-27.907499)">
      <g
         id="g95573"
         inkscape:export-filename="/home/poulpos/flop/cours/doc/cm/git/img/draft.png"
         inkscape:export-xdpi="96"
         inkscape:export-ydpi="96"
         transform="translate(-105.83333,7.9375102)"
         style="fill:#fffffe;fill-opacity:0.997722">
        <rect
           style="fill:#fffffe;fill-opacity:0.997722;stroke:none;stroke-width:1;stroke-miterlimit:4;stroke-dasharray:none;stroke-opacity:1"
           id="rect95569"
           width="103.18749"
           height="68.791664"
           x="52.916668"
           y="124.35416"
           ry="0" />
        <rect
           style="fill:#fffffe;fill-opacity:0.997722;stroke:#000000;stroke-width:1;stroke-miterlimit:4;stroke-dasharray:none;stroke-opacity:1"
           id="rect95571"
           width="103.18747"
           height="78.365799"
           x="52.916668"
           y="124.35416"
           ry="0" />
      </g>
    </g>
  </g>
</svg>
